{
  "extends": [
    "config:base",
    ":disableDependencyDashboard",
    ":disableRateLimiting"
  ],
  "labels": [
    "dependencies"
  ],
  "assigneesFromCodeOwners": true,
  "lockFileMaintenance": {
    "enabled": true
  },
  "regexManagers": [
    {
      "fileMatch": ["\\.ya?ml(\\.gotmpl)?$"],
      "matchStrings": [
        "renovate: datasource=(?<datasource>.*?) depName=(?<depName>.*?)( registryUrl=(?<registryUrl>.*?))?( versioning=(?<versioning>.*?))?( depType=(?<depType>.*?))?\\s*(chart_version|tag):\\s*(?<currentValue>.*)"
      ],
      "versioningTemplate": "{{#if versioning}}{{{versioning}}}{{else}}semver{{/if}}"
    },
    {
      "fileMatch": ["^\\.gitlab-ci\\.jsonnet$", "^ci/.+\\.libsonnet$"],
      "matchStrings": [
        "^\\s*(image|name):\\s*'(?<depName>.*?):(?<currentValue>.*?)',"
      ],
      "datasourceTemplate": "docker"
    },
    {
      "fileMatch": ["^\\.gitlab-ci\\.jsonnet$", "^ci/.+\\.libsonnet$"],
      "matchStrings": [
        "renovate: datasource=(?<datasource>.*?) depName=(?<depName>.*?)( registryUrl=(?<registryUrl>.*?))?( versioning=(?<versioning>.*?))?( depType=(?<depType>.*?))?\\s*.*:(?<currentValue>.*)[\"']+,?"
      ],
      "datasourceTemplate": "docker"
    },
    {
      "fileMatch": ["^\\.tool-versions$"],
      "matchStrings": [
        "^# renovate: datasource=(?<datasource>.*?) depName=(?<depName>.*?)( versioning=(?<versioning>.*?))?( depType=(?<depType>.*?))?\\n[^\\s]+\\s+(?<currentValue>.*)"
      ],
      "versioningTemplate": "{{#if versioning}}{{{versioning}}}{{else}}semver{{/if}}"
    }
  ],
  "packageRules": [
    {
      "matchDepTypes": ["pre", "gstg", "gprd"],
      "additionalBranchPrefix": "{{depType}}-",
      "commitMessagePrefix": "[{{depType}}]"
    },
    {
      "matchPaths": [".gitlab-ci.jsonnet", "ci/*.libsonnet", ".tool-versions"],
      "groupName": "Tools"
    }
  ]
}
